asmd_multiplier/tb_asmd_multiplier.vcd
$date
	Thu Oct  7 17:36:08 2021
$end
$version
	Icarus Verilog
$end
$timescale
	1ps
$end
$scope module tb_asmd_multiplier $end
$var wire 1 ! ready $end
$var wire 8 " product [7:0] $end
$var reg 1 # clk $end
$var reg 1 $ reset $end
$var reg 1 % start $end
$var reg 4 & word0 [3:0] $end
$var reg 4 ' word1 [3:0] $end
$scope module module1 $end
$var wire 1 # clk $end
$var wire 1 $ reset $end
$var wire 1 % start $end
$var wire 4 ( word0 [3:0] $end
$var wire 4 ) word1 [3:0] $end
$var wire 1 * shift $end
$var wire 1 ! ready $end
$var wire 8 + product [7:0] $end
$var wire 1 , m_is_1 $end
$var wire 1 - m0 $end
$var wire 1 . load_words $end
$var wire 1 / flush $end
$var wire 1 0 empty $end
$var wire 1 1 add_shift $end
$scope module control_module0 $end
$var wire 1 # clk $end
$var wire 1 $ reset $end
$var wire 1 % start $end
$var wire 1 , m_is_1 $end
$var wire 1 - m0 $end
$var wire 1 0 empty $end
$var reg 1 1 addshift $end
$var reg 1 / flush $end
$var reg 1 . load_words $end
$var reg 1 2 next_state $end
$var reg 1 ! ready $end
$var reg 1 * shift $end
$var reg 1 3 state $end
$upscope $end
$scope module datapath_module0 $end
$var wire 1 1 addshift $end
$var wire 1 # clk $end
$var wire 1 0 empty $end
$var wire 1 / flush $end
$var wire 1 . load_words $end
$var wire 1 $ reset $end
$var wire 1 * shift $end
$var wire 4 4 word0 [3:0] $end
$var wire 4 5 word1 [3:0] $end
$var wire 1 , m_is_1 $end
$var wire 1 - m0 $end
$var reg 8 6 multiplicand [7:0] $end
$var reg 4 7 multiplier [3:0] $end
$var reg 8 8 product [7:0] $end
$upscope $end
$upscope $end
$upscope $end
$enddefinitions $end
#0
$dumpvars
bx 8
bx 7
bx 6
b1111 5
bx 4
x3
12
01
x0
0/
0.
x-
x,
bx +
0*
b1111 )
bx (
b1111 '
bx &
1%
x$
0#
bx "
0!
$end
#5000
1*
12
13
1#
#10000
0-
0*
02
b0 6
0,
b0 7
b0 "
b0 +
b0 8
03
0#
1$
#15000
1#
#20000
0#
0$
#25000
1#
#30000
12
1.
1!
00
0#
b1000 &
b1000 (
b1000 4
#35000
11
0!
0.
12
1-
13
b1111 7
b1000 6
1#
#40000
0#
#45000
b111 7
b10000 6
b1000 "
b1000 +
b1000 8
1#
#50000
0#
#55000
b11 7
b100000 6
b11000 "
b11000 +
b11000 8
1#
#60000
0#
#65000
11
12
1,
b1 7
b1000000 6
b111000 "
b111000 +
b111000 8
1#
#70000
0#
#75000
1*
0-
01
12
0,
b0 7
b10000000 6
b1111000 "
b1111000 +
b1111000 8
1#
#80000
0#
#85000
b0 6
1#
